﻿" Parent"," Parent SKU"," Post parent ID"," Variation ID"," Post status"," SKU"," Stock"," Regular price"," Sale price"," Weight"," Length"," Width"," Height"," Images","  Product Type",
" First Awesome Product"," ",10,27," publish"," 124568",," 145",,,,,," ",
" First Awesome Product"," ",10,28," publish",,," 450",,,,,," ",
" Second Awesome Product"," ",13,30," publish"," 78524",," 175",,,,,," ",
" Second Awesome Product"," ",13,29," publish"," 45852",," 150",,,,,," ",
