﻿" Post title"," Product ID"," SKU"," Stock"," Regular price"," Sale price"," Weight"," Length"," Width"," Height","  Product Type","  Product Visibility"," Product Categories"," Product Tags","  Product Shipping Class",
" First Awesome Product",10,,," 150"," 100",,,,," variable"," "," Super Category"," "," ",
" Second Awesome Product",13,,," 125"," 75",,,,," variable"," "," Duper Category"," "," ",
" Third Awesome Product",15,,," 450"," 120",,,,," simple"," "," Super Duper Category"," "," ",
" Fourth Awesome Product",18,,," 250"," 125",,,,," simple"," "," Stuber Category"," "," ",
" Fifth Awesome Product",20," 123456789",," 145"," 75",,,,," simple"," "," Uber Category"," "," ",
